week 8
…
airport_locations <- airports %>%
  select(faa, lat, lon)
flights %>%
  select(year:day, hour, origin, dest) %>%
  left_join(
    airport_locations,
    by = c("origin" = "faa")
  ) %>%
  left_join(
    airport_locations,
    by = c("dest" = "faa")
  )

## # A tibble: 336,776 x 10
##     year month   day  hour origin dest  lat.x lon.x lat.y lon.y
##    <int> <int> <int> <dbl> <chr>  <chr> <dbl> <dbl> <dbl> <dbl>
##  1  2013     1     1     5 EWR    IAH    40.7 -74.2  30.0 -95.3
##  2  2013     1     1     5 LGA    IAH    40.8 -73.9  30.0 -95.3
##  3  2013     1     1     5 JFK    MIA    40.6 -73.8  25.8 -80.3
##  4  2013     1     1     5 JFK    BQN    40.6 -73.8  NA    NA  
##  5  2013     1     1     6 LGA    ATL    40.8 -73.9  33.6 -84.4
##  6  2013     1     1     5 EWR    ORD    40.7 -74.2  42.0 -87.9
##  7  2013     1     1     6 EWR    FLL    40.7 -74.2  26.1 -80.2
##  8  2013     1     1     6 LGA    IAD    40.8 -73.9  38.9 -77.5
##  9  2013     1     1     6 JFK    MCO    40.6 -73.8  28.4 -81.3
## 10  2013     1     1     6 LGA    ORD    40.8 -73.9  42.0 -87.9
## # ... with 336,766 more rows
…
flights %>%
  select(year:day, hour, origin, dest) %>%
  left_join(
    airport_locations,
    by = c("origin" = "faa")
  ) %>%
  left_join(
    airport_locations,
    by = c("dest" = "faa"),
    suffix = c("_origin", "_dest")
    # existing lat and lon variables in tibble gain the _origin suffix
    # new lat and lon variables are given _dest suffix
  )

## # A tibble: 336,776 x 10
##     year month   day  hour origin dest  lat_origin lon_origin lat_dest
##    <int> <int> <int> <dbl> <chr>  <chr>      <dbl>      <dbl>    <dbl>
##  1  2013     1     1     5 EWR    IAH         40.7      -74.2     30.0
##  2  2013     1     1     5 LGA    IAH         40.8      -73.9     30.0
##  3  2013     1     1     5 JFK    MIA         40.6      -73.8     25.8
##  4  2013     1     1     5 JFK    BQN         40.6      -73.8     NA  
##  5  2013     1     1     6 LGA    ATL         40.8      -73.9     33.6
##  6  2013     1     1     5 EWR    ORD         40.7      -74.2     42.0
##  7  2013     1     1     6 EWR    FLL         40.7      -74.2     26.1
##  8  2013     1     1     6 LGA    IAD         40.8      -73.9     38.9
##  9  2013     1     1     6 JFK    MCO         40.6      -73.8     28.4
## 10  2013     1     1     6 LGA    ORD         40.8      -73.9     42.0
## # ... with 336,766 more rows, and 1 more variable: lon_dest <dbl>
…
2Filter flights to only show flights with planes that have flown at least 100 flights.

planes_gte100 <-
  filter(flights) %>%
  group_by(tailnum) %>%
  count() %>%
  filter(n >= 100)
flights %>%
  semi_join(planes_gte100, by = "tailnum")

## # A tibble: 230,902 x 19
##     year month   day dep_time sched_dep_time dep_delay arr_time
##    <int> <int> <int>    <int>          <int>     <dbl>    <int>
##  1  2013     1     1      517            515         2      830
##  2  2013     1     1      533            529         4      850
##  3  2013     1     1      544            545        -1     1004
##  4  2013     1     1      554            558        -4      740
##  5  2013     1     1      555            600        -5      913
##  6  2013     1     1      557            600        -3      709
##  7  2013     1     1      557            600        -3      838
##  8  2013     1     1      558            600        -2      849
##  9  2013     1     1      558            600        -2      853
## 10  2013     1     1      558            600        -2      923
## # ... with 230,892 more rows, and 12 more variables: sched_arr_time <int>,
## #   arr_delay <dbl>, carrier <chr>, flight <int>, tailnum <chr>,
## #   origin <chr>, dest <chr>, air_time <dbl>, distance <dbl>, hour <dbl>,
## #   minute <dbl>, time_hour <dttm>

3.Combine fueleconomy::vehicles and fueleconomy::common to find only the records for the most common models.

fueleconomy::vehicles %>%
  semi_join(fueleconomy::common, by = c("make", "model"))

## # A tibble: 14,531 x 12
##       id make  model   year class trans drive   cyl displ fuel    hwy   cty
##    <int> <chr> <chr>  <int> <chr> <chr> <chr> <int> <dbl> <chr> <int> <int>
##  1  1833 Acura Integ~  1986 Subc~ Auto~ Fron~     4   1.6 Regu~    28    22
##  2  1834 Acura Integ~  1986 Subc~ Manu~ Fron~     4   1.6 Regu~    28    23
##  3  3037 Acura Integ~  1987 Subc~ Auto~ Fron~     4   1.6 Regu~    28    22
##  4  3038 Acura Integ~  1987 Subc~ Manu~ Fron~     4   1.6 Regu~    28    23
##  5  4183 Acura Integ~  1988 Subc~ Auto~ Fron~     4   1.6 Regu~    27    22
##  6  4184 Acura Integ~  1988 Subc~ Manu~ Fron~     4   1.6 Regu~    28    23
##  7  5303 Acura Integ~  1989 Subc~ Auto~ Fron~     4   1.6 Regu~    27    22
##  8  5304 Acura Integ~  1989 Subc~ Manu~ Fron~     4   1.6 Regu~    28    23
##  9  6442 Acura Integ~  1990 Subc~ Auto~ Fron~     4   1.8 Regu~    24    20
## 10  6443 Acura Integ~  1990 Subc~ Manu~ Fron~     4   1.8 Regu~    26    21
## # ... with 14,521 more rows

Why does the above code join on make and model and not just model? It is possible for two car brands (make) to produce a car with the same name (model). In both the vehicles and common data we can find some examples. For example, Truck 4WD is produced by many different brands.

fueleconomy::vehicles %>%
  distinct(model, make) %>%
  group_by(model) %>%
  filter(n() > 1) %>%
  arrange(model)

## # A tibble: 126 x 2
## # Groups:   model [60]
##    model               make                  
##    <chr>               <chr>                 
##  1 200                 Audi                  
##  2 200                 Chrysler              
##  3 240 DL/240 GL Wagon Mcevoy Motors         
##  4 240 DL/240 GL Wagon Volvo                 
##  5 300E                Lambda Control Systems
##  6 300E                Mercedes-Benz         
##  7 300SL               J.K. Motors           
##  8 300SL               Mercedes-Benz         
##  9 500SE               Mercedes-Benz         
## 10 500SE               Texas Coach Company   
## # ... with 116 more rows
…
## [1] 17

The names of airlines are easier to understand than the two-letter carrier codes. The airlines data frame contains the names of the airlines.

carrier_transfer_tbl <- planes_carriers %>%
  # keep only planes which have flown for more than one airline
  group_by(tailnum) %>%
  filter(n() > 1) %>%
  # join with airlines to get airline names
  left_join(airlines, by = "carrier") %>%
  arrange(tailnum, carrier)
carrier_transfer_tbl

## # A tibble: 34 x 3
## # Groups:   tailnum [17]
##    tailnum carrier name                    
##    <chr>   <chr>   <chr>                   
##  1 N146PQ  9E      Endeavor Air Inc.       
##  2 N146PQ  EV      ExpressJet Airlines Inc.
##  3 N153PQ  9E      Endeavor Air Inc.       
##  4 N153PQ  EV      ExpressJet Airlines Inc.
##  5 N176PQ  9E      Endeavor Air Inc.       
##  6 N176PQ  EV      ExpressJet Airlines Inc.
##  7 N181PQ  9E      Endeavor Air Inc.       
##  8 N181PQ  EV      ExpressJet Airlines Inc.
##  9 N197PQ  9E      Endeavor Air Inc.       
## 10 N197PQ  EV      ExpressJet Airlines Inc.
## # ... with 24 more rows
…
